[
  {
    "country": "China_mock",
    "cases": 81394,
    "todayCases": 54,
    "deaths": 3295,
    "todayDeaths": 3,
    "recovered": 74971,
    "active": 3128,
    "critical": 886,
    "casesPerOneMillion": 57,
    "deathsPerOneMillion": 2
  },
  {
    "country": "USA_mock",
    "cases": 104256,
    "todayCases": 130,
    "deaths": 1704,
    "todayDeaths": 8,
    "recovered": 170,
    "active": 100027,
    "critical": 2494,
    "casesPerOneMillion": 315,
    "deathsPerOneMillion": 5
  },
  {
    "country": "Italy_mock",
    "cases": 86498,
    "todayCases": 0,
    "deaths": 9134,
    "todayDeaths": 0,
    "recovered": 90,
    "active": 66414,
    "critical": 3732,
    "casesPerOneMillion": 1431,
    "deathsPerOneMillion": 151
  },
  {
    "country": "Spain_mock",
    "cases": 65719,
    "todayCases": 0,
    "deaths": 5138,
    "todayDeaths": 0,
    "recovered": 9357,
    "active": 51224,
    "critical": 4165,
    "casesPerOneMillion": 1406,
    "deathsPerOneMillion": 110
  },
  {
    "country": "Germany_mock",
    "cases": 50871,
    "todayCases": 0,
    "deaths": 351,
    "todayDeaths": 0,
    "recovered": 6658,
    "active": 43862,
    "critical": 1581,
    "casesPerOneMillion": 607,
    "deathsPerOneMillion": 4
  },
  {
    "country": "France_mock",
    "cases": 32964,
    "todayCases": 0,
    "deaths": 1995,
    "todayDeaths": 0,
    "recovered": 5700,
    "active": 25269,
    "critical": 3787,
    "casesPerOneMillion": 505,
    "deathsPerOneMillion": 31
  },
  {
    "country": "Iran_mock",
    "cases": 32332,
    "todayCases": 0,
    "deaths": 2378,
    "todayDeaths": 0,
    "recovered": 113,
    "active": 18821,
    "critical": 2893,
    "casesPerOneMillion": 385,
    "deathsPerOneMillion": 28
  },
  {
    "country": "UK_mock",
    "cases": 14543,
    "todayCases": 0,
    "deaths": 759,
    "todayDeaths": 0,
    "recovered": 135,
    "active": 13649,
    "critical": 163,
    "casesPerOneMillion": 214,
    "deathsPerOneMillion": 11
  },
  {
    "country": "Switzerland_mock",
    "cases": 12928,
    "todayCases": 0,
    "deaths": 231,
    "todayDeaths": 0,
    "recovered": 1530,
    "active": 11167,
    "critical": 203,
    "casesPerOneMillion": 1494,
    "deathsPerOneMillion": 27
  },
  {
    "country": "S. Korea_mock",
    "cases": 9478,
    "todayCases": 146,
    "deaths": 144,
    "todayDeaths": 5,
    "recovered": 4811,
    "active": 4523,
    "critical": 59,
    "casesPerOneMillion": 185,
    "deathsPerOneMillion": 3
  },
  {
    "country": "Netherlands_mock",
    "cases": 8603,
    "todayCases": 0,
    "deaths": 546,
    "todayDeaths": 0,
    "recovered": 3,
    "active": 8054,
    "critical": 761,
    "casesPerOneMillion": 502,
    "deathsPerOneMillion": 32
  },
  {
    "country": "Austria_mock",
    "cases": 7697,
    "todayCases": 0,
    "deaths": 58,
    "todayDeaths": 0,
    "recovered": 225,
    "active": 7414,
    "critical": 128,
    "casesPerOneMillion": 855,
    "deathsPerOneMillion": 6
  },
  {
    "country": "Belgium_mock",
    "cases": 7284,
    "todayCases": 2,
    "deaths": 289,
    "todayDeaths": 7,
    "recovered": 858,
    "active": 6137,
    "critical": 690,
    "casesPerOneMillion": 628,
    "deathsPerOneMillion": 25
  }
]